{
  "android_play_store_link": "",
  "ios_app_store_link": "",
  "sticker_packs": [
    {
      "identifier": "1",
      "name": "Cuppy",
      "publisher": "Sujay Sreedhar",
      "tray_image_file": "tray_Cuppy.png",
      "publisher_email":"sujay@sserd.org",
      "publisher_website": "www.sserd.org",
      "privacy_policy_website": "",
      "license_agreement_website": "",
      "stickers": [
        {
          "image_file": "01_sserd_logo.webp",
          "emojis": ["☕","🙂"]
        },
        {
          "image_file": "02_oh_astronaut.webp",
          "emojis": ["😄","😀"]
        },
        {
          "image_file": "03_new_astronaut.webp",
          "emojis": ["😆","😂"]
        },
        {
          "image_file": "04_launch_rocket.webp",
          "emojis": ["😩","😰"]
        }
      ]
    }
  ]
}
